{
    "data": [
        {
            "id": "2",
            "name": "FA cup",
            "teams": [
                {
                    "id": "9",
                    "name": "Burnley"
                },
                {
                    "id": "10",
                    "name": "Cardiff City"
                },
                {
                    "id": "11",
                    "name": "Chelsea"
                },
                {
                    "id": "12",
                    "name": "Everton"
                },
                {
                    "id": "13",
                    "name": "Leicester City"
                },
                {
                    "id": "14",
                    "name": "Liverpool"
                },
                {
                    "id": "15",
                    "name": "Manchester City"
                },
                {
                    "id": "16",
                    "name": "Manchester United"
                }
            ]
        }
    ],
    "status": "1",
    "message": "Success"
}